
(module 1760490000 (layer F.Cu) (tedit 5EF7AE3E)
  (descr "")
  (fp_text reference REF** (at 0.63547 -5.08367 0) (layer F.SilkS)
    (effects (font (size 1.00072440945 1.00072440945) (thickness 0.015)))
  )
  (fp_text value 1760490000 (at 0 0) (layer F.Fab)
    (effects (font (size 0.787401574803 0.787401574803) (thickness 0.015)))
  )
  (fp_line (start -2.54 -4.2) (end -2.54 3.8) (layer F.SilkS) (width 0.127))
  (fp_line (start -2.54 3.8) (end 7.62 3.8) (layer F.SilkS) (width 0.127))
  (fp_line (start 7.62 3.8) (end 7.62 -4.2) (layer F.SilkS) (width 0.127))
  (fp_line (start 7.62 -4.2) (end -2.54 -4.2) (layer F.SilkS) (width 0.127))
  (fp_poly
    (pts
      (xy -0.635271 1.27)
      (xy 0.635 1.27)
      (xy 0.635 3.81163)
      (xy -0.635271 3.81163)
    ) (layer F.SilkS) (width 0.01)
  )
  (fp_poly
    (pts
      (xy 4.45064 1.27)
      (xy 5.715 1.27)
      (xy 5.715 3.81483)
      (xy 4.45064 3.81483)
    ) (layer F.SilkS) (width 0.01)
  )
  (pad 1 thru_hole rect (at 0.0 0.0) (size 2.25 2.25) (drill 1.5) (layers *.Cu *.Mask))
  (pad 2 thru_hole circle (at 5.08 0.0) (size 2.25 2.25) (drill 1.5) (layers *.Cu *.Mask))
)